<?xml version="1.0" encoding="UTF-8"?>
<session version="1.0">
<refactoring clone="true" comment="Infer generic type arguments on &apos;Strings&apos;&#x0D;&#x0A;- Original project: &apos;Strings&apos;&#x0D;&#x0A;- Original elements:&#x0D;&#x0A;     Strings/src/(default package)&#x0D;&#x0A;- Assume clone() returns an instance of the receiver type&#x0D;&#x0A;- Leave unconstrained type arguments raw" description="Infer generic type arguments" element1="/src&lt;" flags="6" id="org.eclipse.jdt.ui.infer.typearguments" leave="true" stamp="1650821999146" version="1.0"/>
</session>